%YAML 1.1
%TAG !u! tag:unity3d.com,2011:
--- !u!114 &6714164801259386755
MonoBehaviour:
  m_ObjectHideFlags: 0
  m_CorrespondingSourceObject: {fileID: 0}
  m_PrefabInstance: {fileID: 0}
  m_PrefabAsset: {fileID: 0}
  m_GameObject: {fileID: 4093047821727785455}
  m_Enabled: 1
  m_EditorHideFlags: 0
  m_Script: {fileID: 11500000, guid: 4852fd64cd74a224e90941459aabc658, type: 3}
  m_Name: 
  m_EditorClassIdentifier: 
  DefaultAnimation: idle
  ParentOverride: {fileID: 0}
  generateHitboxes: 1
  saveSnapshots: 1
  MaxBoxes: 10
  HitHurtBoxReference: {fileID: 1580854223974271794, guid: 7fd4e2e20963a5444b46c8d6a3f095d0,
    type: 3}
  isDebugBoxes: 1
  Animations:
  - animationName: idle
    framesPerSecond: 0
    animationFrames:
    - frameSprite: {fileID: 21300000, guid: 8f9933b91e84ef049bf349fdba91ad2d, type: 3}
      boxes:
      - boxX: -0.003
        boxY: -0.004
        boxWidth: 1.037286
        boxHeight: 1.0215629
        boxRotation: 0
        isHurtBox: 0
  CurrentFrameTime: 0
  UsedHitHurtBoxes: []
--- !u!1001 &8608242117971248892
PrefabInstance:
  m_ObjectHideFlags: 0
  serializedVersion: 2
  m_Modification:
    m_TransformParent: {fileID: 0}
    m_Modifications:
    - target: {fileID: 5745453858025301779, guid: 8f0a69f9aa7376b49976272d873a1edf,
        type: 3}
      propertyPath: m_Name
      value: TestNPC
      objectReference: {fileID: 0}
    - target: {fileID: 5745453858025301779, guid: 8f0a69f9aa7376b49976272d873a1edf,
        type: 3}
      propertyPath: m_Layer
      value: 8
      objectReference: {fileID: 0}
    - target: {fileID: 8053634619955462688, guid: 8f0a69f9aa7376b49976272d873a1edf,
        type: 3}
      propertyPath: m_SceneId
      value: 0
      objectReference: {fileID: 0}
    - target: {fileID: 8053634619955462688, guid: 8f0a69f9aa7376b49976272d873a1edf,
        type: 3}
      propertyPath: m_AssetId
      value: 
      objectReference: {fileID: 0}
    - target: {fileID: 8053634619955462688, guid: 8f0a69f9aa7376b49976272d873a1edf,
        type: 3}
      propertyPath: localPlayerAuthority
      value: 0
      objectReference: {fileID: 0}
    - target: {fileID: 6278290815557961294, guid: 8f0a69f9aa7376b49976272d873a1edf,
        type: 3}
      propertyPath: health
      value: 50
      objectReference: {fileID: 0}
    - target: {fileID: 4516803401585501494, guid: 8f0a69f9aa7376b49976272d873a1edf,
        type: 3}
      propertyPath: m_LocalPosition.x
      value: 0
      objectReference: {fileID: 0}
    - target: {fileID: 4516803401585501494, guid: 8f0a69f9aa7376b49976272d873a1edf,
        type: 3}
      propertyPath: m_LocalPosition.y
      value: 0
      objectReference: {fileID: 0}
    - target: {fileID: 4516803401585501494, guid: 8f0a69f9aa7376b49976272d873a1edf,
        type: 3}
      propertyPath: m_LocalPosition.z
      value: 0
      objectReference: {fileID: 0}
    - target: {fileID: 4516803401585501494, guid: 8f0a69f9aa7376b49976272d873a1edf,
        type: 3}
      propertyPath: m_LocalRotation.x
      value: 0
      objectReference: {fileID: 0}
    - target: {fileID: 4516803401585501494, guid: 8f0a69f9aa7376b49976272d873a1edf,
        type: 3}
      propertyPath: m_LocalRotation.y
      value: 0
      objectReference: {fileID: 0}
    - target: {fileID: 4516803401585501494, guid: 8f0a69f9aa7376b49976272d873a1edf,
        type: 3}
      propertyPath: m_LocalRotation.z
      value: 0
      objectReference: {fileID: 0}
    - target: {fileID: 4516803401585501494, guid: 8f0a69f9aa7376b49976272d873a1edf,
        type: 3}
      propertyPath: m_LocalRotation.w
      value: 1
      objectReference: {fileID: 0}
    - target: {fileID: 4516803401585501494, guid: 8f0a69f9aa7376b49976272d873a1edf,
        type: 3}
      propertyPath: m_RootOrder
      value: 0
      objectReference: {fileID: 0}
    - target: {fileID: 4516803401585501494, guid: 8f0a69f9aa7376b49976272d873a1edf,
        type: 3}
      propertyPath: m_LocalEulerAnglesHint.x
      value: 0
      objectReference: {fileID: 0}
    - target: {fileID: 4516803401585501494, guid: 8f0a69f9aa7376b49976272d873a1edf,
        type: 3}
      propertyPath: m_LocalEulerAnglesHint.y
      value: 0
      objectReference: {fileID: 0}
    - target: {fileID: 4516803401585501494, guid: 8f0a69f9aa7376b49976272d873a1edf,
        type: 3}
      propertyPath: m_LocalEulerAnglesHint.z
      value: 0
      objectReference: {fileID: 0}
    - target: {fileID: 2202538402716094059, guid: 8f0a69f9aa7376b49976272d873a1edf,
        type: 3}
      propertyPath: m_Sprite
      value: 
      objectReference: {fileID: 21300000, guid: 8f9933b91e84ef049bf349fdba91ad2d,
        type: 3}
    - target: {fileID: 2202538402716094059, guid: 8f0a69f9aa7376b49976272d873a1edf,
        type: 3}
      propertyPath: m_Materials.Array.data[0]
      value: 
      objectReference: {fileID: 10754, guid: 0000000000000000f000000000000000, type: 0}
    - target: {fileID: 2202538402716094059, guid: 8f0a69f9aa7376b49976272d873a1edf,
        type: 3}
      propertyPath: m_WasSpriteAssigned
      value: 1
      objectReference: {fileID: 0}
    - target: {fileID: 2202538402716094059, guid: 8f0a69f9aa7376b49976272d873a1edf,
        type: 3}
      propertyPath: m_Size.x
      value: 15
      objectReference: {fileID: 0}
    - target: {fileID: 2202538402716094059, guid: 8f0a69f9aa7376b49976272d873a1edf,
        type: 3}
      propertyPath: m_Size.y
      value: 8.4375
      objectReference: {fileID: 0}
    - target: {fileID: 1971424482463991758, guid: 8f0a69f9aa7376b49976272d873a1edf,
        type: 3}
      propertyPath: m_Radius
      value: 0.56
      objectReference: {fileID: 0}
    - target: {fileID: 1971424482463991758, guid: 8f0a69f9aa7376b49976272d873a1edf,
        type: 3}
      propertyPath: m_IsTrigger
      value: 1
      objectReference: {fileID: 0}
    m_RemovedComponents: []
  m_SourcePrefab: {fileID: 100100000, guid: 8f0a69f9aa7376b49976272d873a1edf, type: 3}
--- !u!1 &4093047821727785455 stripped
GameObject:
  m_CorrespondingSourceObject: {fileID: 5745453858025301779, guid: 8f0a69f9aa7376b49976272d873a1edf,
    type: 3}
  m_PrefabInstance: {fileID: 8608242117971248892}
  m_PrefabAsset: {fileID: 0}
